url,title,subscribers,views,likes,dislikes,date_published,channel_name,Brand
https://www.youtube.com/watch?v=FYMrclLWZ3w,New Colgate Max Expert White - Does it really Work,646,"51,099",186,37,"Nov 26, 2015",TheBossette Doyin,Colgate
https://www.youtube.com/watch?v=iVeZQhxfMaI,Colgate Optic White Toothpaste - Review/Do's and Dont's for Teeth-Whitening,1,"2,164",11,2,,Anne Chen,Colgate
https://www.youtube.com/watch?v=P59v4U50NzU,Colgate Optic White Toothpaste Review,1.67K,"20,275",65,14,"Feb 14, 2014",John Mederich,Colgate
https://www.youtube.com/watch?v=hgv51GaqDZM,Colgate Total Advanced Deep Clean Review - Gingivitis Treatment,39.5K,"6,307",53,12,"Feb 17, 2018",Trey Jones,Colgate
https://www.youtube.com/watch?v=igjAXyKMFV8,Colgate Enamel Health Toothpaste Review,2,416,1,0,"Dec 1, 2014",Lisa P,Colgate
https://www.youtube.com/watch?v=wVfOitBDDOI,#FDFabulous Bernetta Style Reviews Colgate Optic White,7.92K,"5,329",39,1,"Jan 16, 2016",TheFamilyDollar,Colgate
,,,,,,,,
https://www.youtube.com/watch?v=nE06fDHp5Os,Sensodyne Pronamel Toothpaste & Fluoride Rinse,656,"118,646",654,151,"Mar 30, 2014",TatsThighsAndPrettyEyes,Sensodyne
https://www.youtube.com/watch?v=GEDljrQ5Pec,sensodyne tooth paste review,50,437,1,1,"Jul 29, 2013",Paige Genisis,Sensodyne
https://www.youtube.com/watch?v=Q5AlN0Y57ac,sensodyne tooth paste review,2.88K,501,7,0,"Jan 15, 2018",anjali Sanadhya,Sensodyne
https://www.youtube.com/watch?v=C5GeY5ckhxQ,Sensodyne Toothpaste At Costco 4 Pack,6,"1,835",4,1,"May 11, 2014",Clay Scott Brown,Sensodyne
https://www.youtube.com/watch?v=bTXiJaSA3Y4,Sensodyne gel toothpaste review,0,"1,966",13,3,"Jan 11, 2018",Ariel Princess,Sensodyne
https://www.youtube.com/watch?v=VVwen__Zjqc,SENSODYNE REVIEW!!! OH SHIIIIT!,124K,"53,664",1.2k,219,"Feb 14, 2017",Millbeeful,Sensodyne
https://www.youtube.com/watch?v=fKq9fKGDBfs,Cure for Sensitive Teeth? - Sensodyne Pronamel Gentle Whitening ToothPaste Review - MumblesVideos,1.83K,362,12,2,"Jun 24, 2019",MumblesVideos,Sensodyne
https://www.youtube.com/watch?v=g3C-WxRDv2c,Sensodyne Pronamel Toothpaste Review,46,"12,321",46,18,"Jun 17, 2015",Rockmomma 4,Sensodyne
https://www.youtube.com/watch?v=uf_EN_-U2B0,How To Use Sensodyne Pronamel Fresh Breath Toothpaste Review,13.2K,874,4,2,"Nov 17, 2018",The Stuff I Use Channel,Sensodyne
https://www.youtube.com/watch?v=07uImX2EmQo,"Sensodyne Repair and Protect toothpaste Review, completely random review",86,"2,302",15,6,"Jan 2, 2019",Completely Random Review,Sensodyne
https://www.youtube.com/watch?v=K1AF5hyhp64,Sensodyne pro active iso toothpaste,3,"1,583",8,1,"May 9, 2012",Charles Apple,Sensodyne
https://www.youtube.com/watch?v=WG9M4sE6CZY,Review: Sensodyne Extra Whitening Toothpaste,2.26K,"23,855",60,14,"May 8, 2013",LA Page Makeup,Sensodyne
,,,,,,,,
https://www.youtube.com/watch?v=XabBbGMCzUg,BEST WHITENING TOOTHPASTE EVER: REVIEW Crest 3D White Brilliance,215,"32,184",122,29,"Apr 1, 2018",Pretty Silly,Crest
https://www.youtube.com/watch?v=sl7lbqlROFE,Crest 3D Whitening Toothpaste Review,1.79K,"36,162",168,13,"Jun 29, 2015",Becoming Woman,Crest
https://www.youtube.com/watch?v=XCc_kBbsNq4,Crest Pro Health HD Toothpaste Trial & Thoughts Review!,14.1K,"13,155",115,14,"Mar 30, 2016",LindaYoung,Crest
https://www.youtube.com/watch?v=haSlQpIgO6w,HOW TO GET WHITER TEETH || Crest Pro-Health HD Daily Two-Step Toothpaste,4.35K,"6,883",56,6,"Sep 22, 2017",Kaila Sunday,Crest
https://www.youtube.com/watch?v=Y12jYtFB5Og,CREST 3D WHITESTRIP HACK | Deniz F.,14.4K,"361,038",1.8k,349,"Sep 7, 2017",Deniz F. Andrews,Crest
https://www.youtube.com/watch?v=E7mXSoWx534,Friday Favourite Thing #2,4,323,2,0,"Nov 26, 2010",bajanbrowneyes1975,Crest
https://www.youtube.com/watch?v=BWFhmU4DFMA,Does Whitening Toothpaste Really Work? - Crest 3D White Luxe Review,4.31K,"176,711",897,220,"May 31, 2016",Green Light Life,Crest
https://www.youtube.com/watch?v=g8HIBuZo4S0,Brushing teeth is good with Crest toothpaste,3,163,3,1,"Nov 23, 2014",Leslie Jackson,Crest
https://www.youtube.com/watch?v=0_7rku70soQ,Crest 3D White First Impression - Ex2L Beauty,108,"27,200",67,40,"Dec 4, 2015",Elisha A,Crest
https://www.youtube.com/watch?v=GS8-NJiFkKk,Crest Complete Whitening Plus Scope Toothpaste,22,"2,295",25,16,"Dec 16, 2017",Maribel Williams,Crest
https://www.youtube.com/watch?v=XoDUIuyEuaI,Crest Scope Toothpaste Unboxing Review Spoof,111,510,4,1,"Mar 8, 2012",TheOneAndOnly2234,Crest
https://www.youtube.com/watch?v=Gtih6S-dzn0,✅ How To Use Kid's Crest Toothpaste Review,13.2K,"1,881",30,3,"Oct 29, 2018",The Stuff I Use Channel,Crest
https://www.youtube.com/watch?v=XV4cQsFzqjo,KingMan tastes Crest's Cinnamon flavored toothpaste!,46,858,25,1,"Oct 16, 2016",The KingMan Show,Crest
,,,,,,,,
https://www.youtube.com/watch?v=72nFfbUJXVQ,Review: Aquafresh Extreme CLEAN...I Swear By It!,2.82K,"5,744",0,0,"Jun 24, 2013",mickeyfan08,Aqua Fresh
https://www.youtube.com/watch?v=5P6nk-OFhBk,AQUAFRESH TOOTHPASTE EXTRA FRESH + WHITENING REVIEW,0,52,0,0,"Sep 19, 2019",RealBeautiful Beauty,Aqua Fresh
https://www.youtube.com/watch?v=ixWHoaR58KQ,Aquafresh Toothpaste - Slayer Jim's Reviews,156,"1,036",13,0,"Sep 22, 2016",Slayer Jim,Aqua Fresh
https://www.youtube.com/watch?v=IxL_1gUgOtU,Aqua fresh toothpaste 9/10,7,166,0,0,"Sep 4, 2015",Bargainseeker4u - product reviews,Aqua Fresh
https://www.youtube.com/watch?v=xFKiq-A54D4,Aquafresh Extreme Clean Toothpaste,0,"3,375",0,0,"May 1, 2015",Aquafresh US,Aqua Fresh
https://www.youtube.com/watch?v=FsyrnuT53Xg,Aquafresh Intensive Cleaning 2x Whitening Toothpaste 1 Week Review FULL HD,1.4K,"1,128",3,2,"Apr 6, 2016",BabyBeauty s,Aqua Fresh
https://www.youtube.com/watch?v=WyiTGXq81zU,Aquafresh iso-active,145,"3,184",6,0,"Sep 11, 2009",Josh Coleman,Aqua Fresh
https://www.youtube.com/watch?v=FMkxfVYeCAo,Aquafresh Tripleprotection advanced toothpaste review (win free stuff)),13,351,0,0,"Nov 2, 2010",YourXnarcotic,Aqua Fresh
https://www.youtube.com/watch?v=nJFAPV5yJdQ,5/11-5/24 Awesome moneymaker on Aquafresh toothpaste at Target & more!!!,99.8K,985,10,0,"May 11, 2014",Savvy Coupon Shopper,Aqua Fresh
https://www.youtube.com/watch?v=cKme_JWYLlI,Aquafresh Toothpaste and toothbrushes,15,36,0,0,"Oct 2, 2015",I have Schizophrenia Too,Aqua Fresh
https://www.youtube.com/watch?v=Phg1H-5Gce4,Aquafresh Iso-Active Commercial (2010),7.86K,295,3,0,"Sep 16, 2018",Jamie Gee,Aqua Fresh
https://www.youtube.com/watch?v=2HU0RLSXiz0,Aquafresh Toothpaste commercial 1980,4.14K,"11,523",19,2,"Apr 15, 2011",MrClassicAds1980s,Aqua Fresh
https://www.youtube.com/watch?v=BBgTl5zn9h8,.25 Cents AquaFresh Extreme Clean Toothpaste at Target 5/10,20,605,3,0,"May 10, 2012",couponhighlights,Aqua Fresh
https://www.youtube.com/watch?v=cwm9IbgPd1E,Worst Tooth Paste Ever!!!,1.82K,"5,617",79,21,"Aug 21, 2013",Mango Thao,Aqua Fresh
https://www.youtube.com/watch?v=RU1-r6GeYDc&t=3s,How To Clean Your Toddler's Milk Teeth | Aquafresh,44.6K,"23,145",95,15,"Jan 7, 2019",Mumsnet,Aqua Fresh
https://www.youtube.com/watch?v=jAQoQRvtZd0,Aquafresh milk teeth undboxing,86,86,0,0,"May 3, 2019",Sue Wingfield,Aqua Fresh
,,,,,,,,
https://www.youtube.com/watch?v=qLC_274mw94,Oral-B 3D White Luxe Perfection Toothpaste Review,5.74K,"27,601",113,12,"Apr 20, 2017",Electric Teeth,Oral-B
https://www.youtube.com/watch?v=suYZqyXyLlI,Oral-B 3D White Vitalize & Brilliance Toothpaste Review,5.74K,"2,563",16,4,"Apr 3, 2017",Electric Teeth,Oral-B
https://www.youtube.com/watch?v=6X2pD3Vo4qE,Red Box: Priyam Bathija Reviews Oral B Pro-Health Toothpaste,6.06K,"1,331",7,1,"Mar 27, 2014",Real Reviews,Oral-B
https://www.youtube.com/watch?v=UtpXMzy8cl0,Oral B Tooth Paste Review and 5 benefits,0,153,1,0,"Sep 10, 2018",VINNEL TV,Oral-B